[
	{
		"anonymous": false,
		"inputs": [
			{
				"indexed": false,
				"internalType": "address",
				"name": "sender",
				"type": "address"
			},
			{
				"indexed": false,
				"internalType": "address",
				"name": "tokenIn",
				"type": "address"
			},
			{
				"indexed": false,
				"internalType": "address",
				"name": "tokenOut",
				"type": "address"
			},
			{
				"indexed": false,
				"internalType": "uint256",
				"name": "amountIn",
				"type": "uint256"
			},
			{
				"indexed": false,
				"internalType": "uint256",
				"name": "amountOut",
				"type": "uint256"
			}
		],
		"name": "newSWAP",
		"type": "event"
	},
	{
		"anonymous": false,
		"inputs": [
			{
				"indexed": false,
				"internalType": "address",
				"name": "token",
				"type": "address"
			}
		],
		"name": "updateLiquidity",
		"type": "event"
	},
	{
		"inputs": [
			{
				"internalType": "address",
				"name": "token",
				"type": "address"
			},
			{
				"internalType": "uint256",
				"name": "tokenAmount",
				"type": "uint256"
			},
			{
				"internalType": "uint256",
				"name": "baseAmount",
				"type": "uint256"
			}
		],
		"name": "addLiquidity",
		"outputs": [],
		"stateMutability": "nonpayable",
		"type": "function"
	},
	{
		"inputs": [],
		"name": "getBaseToken",
		"outputs": [
			{
				"internalType": "address",
				"name": "",
				"type": "address"
			}
		],
		"stateMutability": "view",
		"type": "function"
	},
	{
		"inputs": [
			{
				"internalType": "address",
				"name": "token",
				"type": "address"
			}
		],
		"name": "getLiquidity",
		"outputs": [
			{
				"internalType": "uint256",
				"name": "",
				"type": "uint256"
			},
			{
				"internalType": "uint256",
				"name": "",
				"type": "uint256"
			}
		],
		"stateMutability": "view",
		"type": "function"
	},
	{
		"inputs": [
			{
				"internalType": "address",
				"name": "token",
				"type": "address"
			}
		],
		"name": "removeLiquidity",
		"outputs": [],
		"stateMutability": "nonpayable",
		"type": "function"
	},
	{
		"inputs": [
			{
				"internalType": "address",
				"name": "tokenIn",
				"type": "address"
			},
			{
				"internalType": "address",
				"name": "tokenOut",
				"type": "address"
			},
			{
				"internalType": "uint256",
				"name": "amountIn",
				"type": "uint256"
			},
			{
				"internalType": "uint256",
				"name": "amountOutMin",
				"type": "uint256"
			}
		],
		"name": "swap",
		"outputs": [],
		"stateMutability": "nonpayable",
		"type": "function"
	},
	{
		"inputs": [
			{
				"internalType": "address",
				"name": "tokenIn",
				"type": "address"
			},
			{
				"internalType": "address",
				"name": "tokenOut",
				"type": "address"
			},
			{
				"internalType": "uint256",
				"name": "amountIn",
				"type": "uint256"
			}
		],
		"name": "swapPreview",
		"outputs": [
			{
				"internalType": "uint256",
				"name": "",
				"type": "uint256"
			}
		],
		"stateMutability": "view",
		"type": "function"
	}
]